Economic Simulation Data Analysis
…
colnames(pd)

 [1] "pid"          "con"          "scen"         "sex"          "age"         
 [6] "ethnic"       "alex"         "words"        "describe"     "first.choice"
[11] "coop"         "delay"        "teq"          "iri_pt"       "iri_fs"      
[16] "iri_ec"       "iri_pd"      

This code will help us understand how many people cooperated versus defected in each experimental condition. “Does the experimental condition (‘imagine’ vs ‘control’) affect the likelihood of cooperating?” The participants played a total of

# calculated the proportion of cooperation
pd <- pd |>
  mutate(coop_rate = coop / 20)
pd

# A tibble: 120 × 18
     pid con   scen  sex     age ethnic  alex  words describe first.choice  coop
   <dbl> <chr> <chr> <chr> <dbl> <chr>   <chr> <dbl> <chr>           <dbl> <dbl>
 1  7019 imag  sub   F        19 South … F        NA Alex an…            1    19
 2  7026 imag  sub   F        18 East A… F        NA It is a…            1    20
 3  7031 imag  sub   F        23 East A… F        NA I would…            1    20
 4  7052 imag  res   F        18 South … F        NA I'd ass…            1    20
 5  7053 imag  res   F        18 Europe… F        NA It's Fr…            0     7
 6  7058 imag  res   F        18 East A… F        NA I imagi…            1    20
 7  7064 imag  res   F        20 Europe… F        NA Saturda…            1    20
 8  7069 imag  res   F        19 East A… F        NA Alex is…            1    20
 9  7075 imag  res   F        18 East A… F        NA Like sh…            1    20
10  7081 imag  res   F        19 East A… F        NA Saturda…            0     0
# ℹ 110 more rows
# ℹ 7 more variables: delay <dbl>, teq <dbl>, iri_pt <dbl>, iri_fs <dbl>,
#   iri_ec <dbl>, iri_pd <dbl>, coop_rate <dbl>
…
